…
[1mindexing[0m [34mpurl.r[0m [===========================================] [32m?[0m, eta: [36m 0s[0m                                                                                                            
Attaching package: ‘glue’

The following object is masked from ‘package:dplyr’:

    collapse

i Loading econforecasting
i Updating econforecasting documentation
i Loading econforecasting
Writing NAMESPACE
Writing NAMESPACE
# A tibble: 406 x 3
   term     name    value
   <chr>    <chr>   <dbl>
 1 advsales mpce    0.945
 2 csent    kclfi   0.915
 3 ue       ipi    -0.865
 4 ipi      mpce    0.850
 5 mort30y  t10y    0.826
 6 ue       bankci  0.817
 7 ue       mpce   -0.806
 8 advsales vsales  0.799
 9 ipi      bankci -0.778
10 vsales   mpce    0.775
# ... with 396 more rows
…
